[{"totalCount": 220836, "count": 20, "models": [{"id": 480404, "url": "trafiksiqortanetten.xyz", "type": "domain", "desc": "BP", "source": "US", "date": "2023-06-17 23:35:20.706944", "criticality_level": 4, "connectiontype": "PH"}, {"id": 480402, "url": "ingilizsiqorta.xyz", "type": "domain", "desc": "BP", "source": "US", "date": "2023-06-17 23:35:16.400996", "criticality_level": 4, "connectiontype": "PH"}, {"id": 480400, "url": "bayrm-ikramiyesi.online", "type": "domain", "desc": "BP", "source": "US", "date": "2023-06-17 23:35:12.52626", "criticality_level": 4, "connectiontype": "PH"}, {"id": 480398, "url": "bizimlefirsatlarburda.net", "type": "domain", "desc": "BP", "source": "US", "date": "2023-06-17 23:35:08.589037", "criticality_level": 4, "connectiontype": "PH"}, {"id": 480396, "url": "teklifhizmetleri.net.tr", "type": "domain", "desc": "BP", "source": "US", "date": "2023-06-17 23:23:05.208974", "criticality_level": 4, "connectiontype": "PH"}, {"id": 480394, "url": "teklifhizmetleri.name.tr", "type": "domain", "desc": "BP", "source": "US", "date": "2023-06-17 23:01:11.991981", "criticality_level": 4, "connectiontype": "PH"}, {"id": 480392, "url": "teklifhizmetleri.com.tr", "type": "domain", "desc": "BP", "source": "US", "date": "2023-06-17 23:01:06.360803", "criticality_level": 4, "connectiontype": "PH"}, {"id": 480390, "url": "teklifhizmetleri.gen.tr", "type": "domain", "desc": "BP", "source": "US", "date": "2023-06-17 22:57:14.18286", "criticality_level": 4, "connectiontype": "PH"}, {"id": 480388, "url": "teklifhizmetleri.org.tr", "type": "domain", "desc": "BP", "source": "US", "date": "2023-06-17 22:57:09.643986", "criticality_level": 4, "connectiontype": "PH"}, {"id": 480386, "url": "808belicoff.com.tr", "type": "domain", "desc": "BP", "source": "US", "date": "2023-06-17 22:35:30.573884", "criticality_level": 4, "connectiontype": "PH"}, {"id": 480384, "url": "iadenizburdasistem.de", "type": "domain", "desc": "BP", "source": "US", "date": "2023-06-17 22:31:39.329839", "criticality_level": 4, "connectiontype": "PH"}, {"id": 480382, "url": "paramtr.com", "type": "domain", "desc": "BP", "source": "IH", "date": "2023-06-17 21:53:57.869758", "criticality_level": 4, "connectiontype": "PH"}, {"id": 480380, "url": "sahibinden.paramtr.com", "type": "domain", "desc": "BP", "source": "IH", "date": "2023-06-17 21:53:57.869758", "criticality_level": 4, "connectiontype": "PH"}, {"id": 480378, "url": "webbildiri-info.com", "type": "domain", "desc": "BP", "source": "IH", "date": "2023-06-17 21:00:21.115446", "criticality_level": 4, "connectiontype": "PH"}, {"id": 480376, "url": "masdgasgzxbnwqwq.net", "type": "domain", "desc": "BP", "source": "IH", "date": "2023-06-17 20:58:57.767495", "criticality_level": 4, "connectiontype": "PH"}, {"id": 480374, "url": "tuvrandevu.net", "type": "domain", "desc": "BP", "source": "IH", "date": "2023-06-17 20:43:36.513876", "criticality_level": 4, "connectiontype": "PH"}, {"id": 480372, "url": "nevsehir-saglik.xyz", "type": "domain", "desc": "BP", "source": "US", "date": "2023-06-17 20:43:05.126217", "criticality_level": 4, "connectiontype": "PH"}, {"id": 480370, "url": "sigortamnetvivp.site", "type": "domain", "desc": "BP", "source": "IH", "date": "2023-06-17 20:43:01.796449", "criticality_level": 4, "connectiontype": "PH"}, {"id": 480368, "url": "elmllakvergi.net", "type": "domain", "desc": "BP", "source": "US", "date": "2023-06-17 19:37:10.696137", "criticality_level": 4, "connectiontype": "PH"}, {"id": 480366, "url": "nvckrdmtdmrnv.net", "type": "domain", "desc": "BP", "source": "US", "date": "2023-06-17 19:37:06.239486", "criticality_level": 4, "connectiontype": "PH"}], "page": 0, "pageCount": 11042}, {"totalCount": 220836, "count": 20, "models": [{"id": 480364, "url": "indirim-marketi-a1o1.net", "type": "domain", "desc": "BP", "source": "US", "date": "2023-06-17 19:25:05.11591", "criticality_level": 4, "connectiontype": "PH"}, {"id": 480362, "url": "kuvveytturkkimmobbilimmggiriisimm.online", "type": "domain", "desc": "BP", "source": "IH", "date": "2023-06-17 19:23:26.680981", "criticality_level": 4, "connectiontype": "PH"}, {"id": 480360, "url": "e-islemleri-gazete.online", "type": "domain", "desc": "BP", "source": "IH", "date": "2023-06-17 19:23:26.680981", "criticality_level": 4, "connectiontype": "PH"}, {"id": 480358, "url": "dvlportallarim.net", "type": "domain", "desc": "BP", "source": "IH", "date": "2023-06-17 19:23:26.680981", "criticality_level": 4, "connectiontype": "PH"}, {"id": 480356, "url": "xn--anindagellgzelliklerr-jic.com.tr", "type": "domain", "desc": "BP", "source": "IH", "date": "2023-06-17 19:23:26.680981", "criticality_level": 4, "connectiontype": "PH"}, {"id": 480354, "url": "xn--imdigelhaberinial-yjd.app", "type": "domain", "desc": "BP", "source": "IH", "date": "2023-06-17 19:23:26.680981", "criticality_level": 4, "connectiontype": "PH"}, {"id": 480352, "url": "illegalist.store", "type": "domain", "desc": "PH", "source": "IH", "date": "2023-06-17 19:19:27.881368", "criticality_level": 4, "connectiontype": "PH"}, {"id": 480350, "url": "firsatcampanyhediyebasvur.net", "type": "domain", "desc": "PH", "source": "US", "date": "2023-06-17 19:04:12.408099", "criticality_level": 4, "connectiontype": "PH"}, {"id": 480348, "url": "acikdeniz-kredi-online.xyz", "type": "domain", "desc": "BP", "source": "US", "date": "2023-06-17 18:47:05.392079", "criticality_level": 4, "connectiontype": "PH"}, {"id": 480346, "url": "sahlbindenguvende.com", "type": "domain", "desc": "BP", "source": "US", "date": "2023-06-17 18:31:15.531958", "criticality_level": 4, "connectiontype": "PH"}, {"id": 480344, "url": "acikdeniz-kredi-online.cyou", "type": "domain", "desc": "BP", "source": "US", "date": "2023-06-17 18:31:11.322116", "criticality_level": 4, "connectiontype": "PH"}, {"id": 480342, "url": "izvilvililvik.net", "type": "domain", "desc": "BP", "source": "US", "date": "2023-06-17 18:31:07.346892", "criticality_level": 4, "connectiontype": "PH"}, {"id": 480340, "url": "acikdeniz-kredi-online.life", "type": "domain", "desc": "BP", "source": "IH", "date": "2023-06-17 18:29:17.391149", "criticality_level": 4, "connectiontype": "PH"}, {"id": 480338, "url": "ileriadimvakfi.com", "type": "domain", "desc": "BP", "source": "US", "date": "2023-06-17 17:57:07.191935", "criticality_level": 4, "connectiontype": "PH"}, {"id": 480336, "url": "eshxsccx1xzxmmrmr.net", "type": "domain", "desc": "BP", "source": "US", "date": "2023-06-17 17:51:08.200089", "criticality_level": 4, "connectiontype": "PH"}, {"id": 480334, "url": "guvende-param-online-secure.online", "type": "domain", "desc": "BP", "source": "US", "date": "2023-06-17 17:45:04.982835", "criticality_level": 4, "connectiontype": "PH"}, {"id": 480332, "url": "acikdeniz-kredi-online.buzz", "type": "domain", "desc": "BP", "source": "US", "date": "2023-06-17 17:37:04.981096", "criticality_level": 4, "connectiontype": "PH"}, {"id": 480330, "url": "vrgnihizliodeme.net", "type": "domain", "desc": "BP", "source": "US", "date": "2023-06-17 17:33:05.000971", "criticality_level": 4, "connectiontype": "PH"}, {"id": 480328, "url": "acikdeniz-kredi-online.top", "type": "domain", "desc": "BP", "source": "US", "date": "2023-06-17 17:23:04.966981", "criticality_level": 4, "connectiontype": "PH"}, {"id": 480326, "url": "oglnreklmvaktmx.net", "type": "domain", "desc": "BP", "source": "US", "date": "2023-06-17 17:07:15.298746", "criticality_level": 4, "connectiontype": "PH"}], "page": 1, "pageCount": 11042}, {"totalCount": 220836, "count": 20, "models": [{"id": 480324, "url": "firsatdunyasia1o1.net", "type": "domain", "desc": "BP", "source": "US", "date": "2023-06-17 17:07:11.077031", "criticality_level": 4, "connectiontype": "PH"}, {"id": 480322, "url": "trdenizfirsathersey.xyz", "type": "domain", "desc": "BP", "source": "US", "date": "2023-06-17 17:07:07.172714", "criticality_level": 4, "connectiontype": "PH"}, {"id": 480320, "url": "agagagaragnti.com.tr", "type": "domain", "desc": "PH", "source": "IH", "date": "2023-06-17 16:57:59.028908", "criticality_level": 4, "connectiontype": "PH"}, {"id": 480318, "url": "basvuru.kredi-hizmeti.com", "type": "domain", "desc": "PH", "source": "IH", "date": "2023-06-17 16:56:47.381504", "criticality_level": 4, "connectiontype": "PH"}, {"id": 480316, "url": "kredi-hizmeti.com", "type": "domain", "desc": "PH", "source": "IH", "date": "2023-06-17 16:56:47.381504", "criticality_level": 4, "connectiontype": "PH"}, {"id": 480314, "url": "asdhjhjdasfhj.net", "type": "domain", "desc": "PH", "source": "IH", "date": "2023-06-17 16:55:27.310308", "criticality_level": 4, "connectiontype": "PH"}, {"id": 480312, "url": "lvbelcone.net", "type": "domain", "desc": "BP", "source": "US", "date": "2023-06-17 16:51:08.436471", "criticality_level": 4, "connectiontype": "PH"}, {"id": 480310, "url": "denizbank-mobil-basvur.top", "type": "domain", "desc": "BP", "source": "US", "date": "2023-06-17 16:47:12.201486", "criticality_level": 4, "connectiontype": "PH"}, {"id": 480308, "url": "denizbank-mobil-basvur.buzz", "type": "domain", "desc": "BP", "source": "US", "date": "2023-06-17 16:47:07.864313", "criticality_level": 4, "connectiontype": "PH"}, {"id": 480306, "url": "sahiblndenguvende.com", "type": "domain", "desc": "BP", "source": "US", "date": "2023-06-17 16:31:06.181487", "criticality_level": 4, "connectiontype": "PH"}, {"id": 480304, "url": "webgirisdvltorgvxtr2.xyz", "type": "domain", "desc": "PH", "source": "IH", "date": "2023-06-17 16:28:33.274854", "criticality_level": 4, "connectiontype": "PH"}, {"id": 480302, "url": "guvende-param-online-secure.com", "type": "domain", "desc": "BP", "source": "US", "date": "2023-06-17 16:19:06.15537", "criticality_level": 4, "connectiontype": "PH"}, {"id": 480300, "url": "denizbank-basvur.xyz", "type": "domain", "desc": "BP", "source": "US", "date": "2023-06-17 16:17:06.488189", "criticality_level": 4, "connectiontype": "PH"}, {"id": 480298, "url": "denizfirsatlarhersey.xyz", "type": "domain", "desc": "BP", "source": "US", "date": "2023-06-17 16:03:11.260149", "criticality_level": 4, "connectiontype": "PH"}, {"id": 480296, "url": "denizbank-basvur.top", "type": "domain", "desc": "BP", "source": "US", "date": "2023-06-17 16:03:07.192319", "criticality_level": 4, "connectiontype": "PH"}, {"id": 480294, "url": "denizbank-basvur.icu", "type": "domain", "desc": "BP", "source": "US", "date": "2023-06-17 15:47:06.695835", "criticality_level": 4, "connectiontype": "PH"}, {"id": 480292, "url": "russigortam.xyz", "type": "domain", "desc": "PH", "source": "IH", "date": "2023-06-17 15:46:15.544113", "criticality_level": 4, "connectiontype": "PH"}, {"id": 480290, "url": "uzmansigortacim.website", "type": "domain", "desc": "PH", "source": "IH", "date": "2023-06-17 15:27:57.192311", "criticality_level": 4, "connectiontype": "PH"}, {"id": 480288, "url": "sivasigorta.xyz", "type": "domain", "desc": "PH", "source": "US", "date": "2023-06-17 15:27:25.357924", "criticality_level": 4, "connectiontype": "PH"}, {"id": 480286, "url": "denizbank-basvur.cyou", "type": "domain", "desc": "BP", "source": "US", "date": "2023-06-17 15:23:06.065751", "criticality_level": 4, "connectiontype": "PH"}], "page": 2, "pageCount": 11042}, {"totalCount": 220836, "count": 20, "models": [{"id": 480284, "url": "denizbank-basvur.buzz", "type": "domain", "desc": "BP", "source": "US", "date": "2023-06-17 15:05:07.301811", "criticality_level": 4, "connectiontype": "PH"}, {"id": 480282, "url": "onlinehemen.b-cdn.net", "type": "domain", "desc": "PH", "source": "US", "date": "2023-06-17 14:50:56.655331", "criticality_level": 4, "connectiontype": "PH"}, {"id": 480280, "url": "acikdeniz-basvur.xyz", "type": "domain", "desc": "PH", "source": "US", "date": "2023-06-17 14:48:30.273341", "criticality_level": 4, "connectiontype": "PH"}, {"id": 480278, "url": "acikdeniz-yatirim.cyou", "type": "domain", "desc": "PH", "source": "US", "date": "2023-06-17 14:48:30.273341", "criticality_level": 4, "connectiontype": "PH"}, {"id": 480276, "url": "yksiqorta.xyz", "type": "domain", "desc": "BP", "source": "US", "date": "2023-06-17 14:47:06.421308", "criticality_level": 4, "connectiontype": "PH"}, {"id": 480274, "url": "get-sahibindenparamguvende.net", "type": "domain", "desc": "BP", "source": "US", "date": "2023-06-17 14:45:12.984988", "criticality_level": 4, "connectiontype": "PH"}, {"id": 480272, "url": "mobildeniz-basvuru-kredi.xyz", "type": "domain", "desc": "BP", "source": "US", "date": "2023-06-17 14:45:08.416186", "criticality_level": 4, "connectiontype": "PH"}, {"id": 480270, "url": "acikdeniz-basvuru-kredi.life", "type": "domain", "desc": "PH", "source": "IH", "date": "2023-06-17 14:27:20.248668", "criticality_level": 4, "connectiontype": "PH"}, {"id": 480268, "url": "zorunlusigortas.cfd", "type": "domain", "desc": "PH", "source": "IH", "date": "2023-06-17 14:26:51.193951", "criticality_level": 4, "connectiontype": "PH"}, {"id": 480266, "url": "zorunlusigortas.website", "type": "domain", "desc": "PH", "source": "IH", "date": "2023-06-17 14:26:51.193951", "criticality_level": 4, "connectiontype": "PH"}, {"id": 480264, "url": "aidat-online-iadeleri-portaliiee141.b-cdn.net", "type": "domain", "desc": "PH", "source": "IH", "date": "2023-06-17 14:26:51.193951", "criticality_level": 4, "connectiontype": "PH"}, {"id": 480262, "url": "mobildeniz-basvuru-kredi.life", "type": "domain", "desc": "PH", "source": "IH", "date": "2023-06-17 14:24:50.127063", "criticality_level": 4, "connectiontype": "PH"}, {"id": 480260, "url": "azsijorta.xyz", "type": "domain", "desc": "PH", "source": "IH", "date": "2023-06-17 14:19:00.688946", "criticality_level": 4, "connectiontype": "PH"}, {"id": 480258, "url": "mymds.ml", "type": "domain", "desc": "PH", "source": "IH", "date": "2023-06-17 14:13:18.857062", "criticality_level": 4, "connectiontype": "PH"}, {"id": 480256, "url": "mobildeniz-basvuru-kredi.top", "type": "domain", "desc": "BP", "source": "US", "date": "2023-06-17 14:11:06.041864", "criticality_level": 4, "connectiontype": "PH"}, {"id": 480254, "url": "okksigorta.xyz", "type": "domain", "desc": "BP", "source": "US", "date": "2023-06-17 14:07:05.970098", "criticality_level": 4, "connectiontype": "PH"}, {"id": 480252, "url": "teklifaninda.net.tr", "type": "domain", "desc": "PH", "source": "IH", "date": "2023-06-17 14:05:08.168453", "criticality_level": 4, "connectiontype": "PH"}, {"id": 480250, "url": "hasewvlokwev.net", "type": "domain", "desc": "PH", "source": "IH", "date": "2023-06-17 14:01:47.065336", "criticality_level": 4, "connectiontype": "PH"}, {"id": 480248, "url": "askimnisa-15.net", "type": "domain", "desc": "PH", "source": "IH", "date": "2023-06-17 14:01:10.711724", "criticality_level": 4, "connectiontype": "PH"}, {"id": 480246, "url": "rtramerkayit.net", "type": "domain", "desc": "PH", "source": "IH", "date": "2023-06-17 13:58:55.33629", "criticality_level": 4, "connectiontype": "PH"}], "page": 3, "pageCount": 11042}, {"totalCount": 220836, "count": 20, "models": [{"id": 480244, "url": "haziraan-campanyhediyebasvur.net", "type": "domain", "desc": "PH", "source": "IH", "date": "2023-06-17 13:50:35.745384", "criticality_level": 4, "connectiontype": "PH"}, {"id": 480242, "url": "eventtenkampayayabasvurmondayoftuesday.net", "type": "domain", "desc": "PH", "source": "IH", "date": "2023-06-17 13:50:35.745384", "criticality_level": 4, "connectiontype": "PH"}, {"id": 480240, "url": "deniz-onayla.net", "type": "domain", "desc": "BP", "source": "US", "date": "2023-06-17 13:43:06.022377", "criticality_level": 4, "connectiontype": "PH"}, {"id": 480238, "url": "uksiqorta.xyz", "type": "domain", "desc": "PH", "source": "IH", "date": "2023-06-17 13:39:05.774534", "criticality_level": 4, "connectiontype": "PH"}, {"id": 480236, "url": "lvbelctwo.net", "type": "domain", "desc": "BP", "source": "US", "date": "2023-06-17 13:35:06.037751", "criticality_level": 4, "connectiontype": "PH"}, {"id": 480234, "url": "test.myogaya.jp", "type": "domain", "desc": "PH", "source": "IH", "date": "2023-06-17 13:25:36.584989", "criticality_level": 4, "connectiontype": "PH"}, {"id": 480232, "url": "portal-grs-denetleme.com", "type": "domain", "desc": "PH", "source": "IH", "date": "2023-06-17 13:25:36.584989", "criticality_level": 4, "connectiontype": "PH"}, {"id": 480230, "url": "eleverelim.net", "type": "domain", "desc": "PH", "source": "IH", "date": "2023-06-17 13:25:36.584989", "criticality_level": 4, "connectiontype": "PH"}, {"id": 480228, "url": "dnzmsdnnndckcllliehashasa.net", "type": "domain", "desc": "PH", "source": "IH", "date": "2023-06-17 13:23:58.250079", "criticality_level": 4, "connectiontype": "PH"}, {"id": 480226, "url": "campaign-july-verified.net", "type": "domain", "desc": "PH", "source": "IH", "date": "2023-06-17 13:23:37.632189", "criticality_level": 4, "connectiontype": "PH"}, {"id": 480224, "url": "webmarket-giris-sayfa.me", "type": "domain", "desc": "PH", "source": "IH", "date": "2023-06-17 13:22:47.713336", "criticality_level": 4, "connectiontype": "PH"}, {"id": 480222, "url": "hizmetkredisorguonlinevarlik.net", "type": "domain", "desc": "PH", "source": "IH", "date": "2023-06-17 13:22:28.369708", "criticality_level": 4, "connectiontype": "PH"}, {"id": 480220, "url": "webgirisdvltorgvxtr2.one", "type": "domain", "desc": "PH", "source": "IH", "date": "2023-06-17 13:22:13.335819", "criticality_level": 4, "connectiontype": "PH"}, {"id": 480218, "url": "63-125-257-33.com", "type": "domain", "desc": "PH", "source": "IH", "date": "2023-06-17 13:21:22.253075", "criticality_level": 4, "connectiontype": "PH"}, {"id": 480216, "url": "mobildeniz-basvuru-kredi.cyou", "type": "domain", "desc": "BP", "source": "US", "date": "2023-06-17 13:15:05.972863", "criticality_level": 4, "connectiontype": "PH"}, {"id": 480214, "url": "adcvt-cvlrt.com", "type": "domain", "desc": "PH", "source": "IH", "date": "2023-06-17 13:11:21.235193", "criticality_level": 4, "connectiontype": "PH"}, {"id": 480212, "url": "kinginannesikasar.xyz", "type": "domain", "desc": "PH", "source": "IH", "date": "2023-06-17 13:11:21.235193", "criticality_level": 4, "connectiontype": "PH"}, {"id": 480210, "url": "teklifaninda.web.tr", "type": "domain", "desc": "PH", "source": "IH", "date": "2023-06-17 13:06:43.797303", "criticality_level": 4, "connectiontype": "PH"}, {"id": 480208, "url": "ansiqorta.xyz", "type": "domain", "desc": "PH", "source": "IH", "date": "2023-06-17 13:06:26.389261", "criticality_level": 4, "connectiontype": "PH"}, {"id": 480206, "url": "sebastianqweas.net", "type": "domain", "desc": "BP", "source": "US", "date": "2023-06-17 13:03:17.757307", "criticality_level": 4, "connectiontype": "PH"}], "page": 4, "pageCount": 11042}]