[{"totalCount": 224139, "count": 20, "models": [{"id": 487212, "url": "luka.alwayspower.dev", "type": "domain", "desc": "PH", "source": "IH", "date": "2023-06-26 12:22:36.265492", "criticality_level": 4, "connectiontype": "PH"}, {"id": 487210, "url": "krediniz-kuveytten201.net", "type": "domain", "desc": "PH", "source": "IH", "date": "2023-06-26 12:20:43.443672", "criticality_level": 4, "connectiontype": "PH"}, {"id": 487208, "url": "katilkampanyasomedaysfree.net", "type": "domain", "desc": "PH", "source": "IH", "date": "2023-06-26 12:13:21.986245", "criticality_level": 4, "connectiontype": "PH"}, {"id": 487206, "url": "garentakiralama.site", "type": "domain", "desc": "BP", "source": "US", "date": "2023-06-26 12:07:24.078586", "criticality_level": 4, "connectiontype": "PH"}, {"id": 487204, "url": "trkoton.shop", "type": "domain", "desc": "PH", "source": "IH", "date": "2023-06-26 12:06:03.169552", "criticality_level": 4, "connectiontype": "PH"}, {"id": 487202, "url": "guncelle-dolap.com", "type": "domain", "desc": "PH", "source": "IH", "date": "2023-06-26 12:04:13.479529", "criticality_level": 4, "connectiontype": "PH"}, {"id": 487200, "url": "vergssislemi.net", "type": "domain", "desc": "PH", "source": "IH", "date": "2023-06-26 11:38:20.275471", "criticality_level": 4, "connectiontype": "PH"}, {"id": 487198, "url": "calimeradans.com.tr", "type": "domain", "desc": "PH", "source": "IH", "date": "2023-06-26 11:23:08.329197", "criticality_level": 4, "connectiontype": "PH"}, {"id": 487196, "url": "halilksxr.com.tr", "type": "domain", "desc": "BP", "source": "US", "date": "2023-06-26 10:43:22.898891", "criticality_level": 4, "connectiontype": "PH"}, {"id": 487194, "url": "aracinizguvende.net", "type": "domain", "desc": "BP", "source": "US", "date": "2023-06-26 10:41:24.086403", "criticality_level": 4, "connectiontype": "PH"}, {"id": 487192, "url": "fastteklifs.name.tr", "type": "domain", "desc": "PH", "source": "IH", "date": "2023-06-26 10:40:17.364774", "criticality_level": 4, "connectiontype": "PH"}, {"id": 487190, "url": "akdemirferforje.com.tr", "type": "domain", "desc": "PH", "source": "IH", "date": "2023-06-26 10:39:28.009681", "criticality_level": 4, "connectiontype": "PH"}, {"id": 487188, "url": "evlenenlere-ozel-wardtatar.net", "type": "domain", "desc": "PH", "source": "IH", "date": "2023-06-26 10:38:43.766319", "criticality_level": 4, "connectiontype": "PH"}, {"id": 487186, "url": "bcseallbng.net", "type": "domain", "desc": "BP", "source": "US", "date": "2023-06-26 10:23:23.020784", "criticality_level": 4, "connectiontype": "PH"}, {"id": 487184, "url": "heranbirfirsatbuyaz.net", "type": "domain", "desc": "PH", "source": "IH", "date": "2023-06-26 10:21:35.354279", "criticality_level": 4, "connectiontype": "PH"}, {"id": 487182, "url": "saigak1.site", "type": "domain", "desc": "PH", "source": "IH", "date": "2023-06-26 09:59:17.309475", "criticality_level": 4, "connectiontype": "PH"}, {"id": 487180, "url": "vrgmsmrsrnznspzrtmsnz.net", "type": "domain", "desc": "PH", "source": "IH", "date": "2023-06-26 09:58:21.022311", "criticality_level": 4, "connectiontype": "PH"}, {"id": 487178, "url": "profixcepservis.com", "type": "domain", "desc": "PH", "source": "IH", "date": "2023-06-26 09:56:33.983088", "criticality_level": 4, "connectiontype": "PH"}, {"id": 487176, "url": "aracinim.net", "type": "domain", "desc": "PH", "source": "IH", "date": "2023-06-26 09:50:05.759849", "criticality_level": 4, "connectiontype": "PH"}, {"id": 487174, "url": "evlklkpzrtmsnrz.net", "type": "domain", "desc": "PH", "source": "IH", "date": "2023-06-26 09:48:36.182066", "criticality_level": 4, "connectiontype": "PH"}], "page": 0, "pageCount": 11207}, {"totalCount": 224139, "count": 20, "models": [{"id": 487172, "url": "365acenta.com", "type": "domain", "desc": "PH", "source": "IH", "date": "2023-06-26 09:47:45.80981", "criticality_level": 4, "connectiontype": "PH"}, {"id": 487170, "url": "tsltksltlstlstlnm.net", "type": "domain", "desc": "BP", "source": "US", "date": "2023-06-26 09:47:22.974421", "criticality_level": 4, "connectiontype": "PH"}, {"id": 487168, "url": "basvurevlilikkredi.com", "type": "domain", "desc": "BP", "source": "US", "date": "2023-06-26 09:43:27.919276", "criticality_level": 4, "connectiontype": "PH"}, {"id": 487166, "url": "hwtrxcakfv.net", "type": "domain", "desc": "BP", "source": "US", "date": "2023-06-26 09:43:23.969656", "criticality_level": 4, "connectiontype": "PH"}, {"id": 487164, "url": "basvurular.ailevegenclik.sedesa.com.tr", "type": "domain", "desc": "PH", "source": "IH", "date": "2023-06-26 09:31:03.419246", "criticality_level": 4, "connectiontype": "PH"}, {"id": 487162, "url": "ailevegenclik.sedesa.com.tr", "type": "domain", "desc": "PH", "source": "IH", "date": "2023-06-26 09:31:03.419246", "criticality_level": 4, "connectiontype": "PH"}, {"id": 487160, "url": "trmrrrrislemler.net", "type": "domain", "desc": "BP", "source": "US", "date": "2023-06-26 09:13:23.998022", "criticality_level": 4, "connectiontype": "PH"}, {"id": 487158, "url": "arcmamsak.net", "type": "domain", "desc": "PH", "source": "IH", "date": "2023-06-26 09:12:07.012031", "criticality_level": 4, "connectiontype": "PH"}, {"id": 487156, "url": "evlklklrnzpzrtmsnz.net", "type": "domain", "desc": "PH", "source": "IH", "date": "2023-06-26 09:11:39.426166", "criticality_level": 4, "connectiontype": "PH"}, {"id": 487154, "url": "testoata.net", "type": "domain", "desc": "PH", "source": "IH", "date": "2023-06-26 08:40:15.500431", "criticality_level": 4, "connectiontype": "PH"}, {"id": 487152, "url": "hungarymgir.pw", "type": "domain", "desc": "BP", "source": "US", "date": "2023-06-26 08:23:23.024821", "criticality_level": 4, "connectiontype": "PH"}, {"id": 487150, "url": "e-bldortakyetkiis.net", "type": "domain", "desc": "PH", "source": "IH", "date": "2023-06-26 07:59:30.306941", "criticality_level": 4, "connectiontype": "PH"}, {"id": 487148, "url": "kl4d.blogspot.com", "type": "domain", "desc": "PH", "source": "IH", "date": "2023-06-26 07:57:38.836708", "criticality_level": 4, "connectiontype": "PH"}, {"id": 487146, "url": "e-bldortakyetkii.net", "type": "domain", "desc": "PH", "source": "IH", "date": "2023-06-26 07:48:52.766174", "criticality_level": 4, "connectiontype": "PH"}, {"id": 487144, "url": "kredi.ailegenclikbasvuru.online", "type": "domain", "desc": "PH", "source": "IH", "date": "2023-06-26 07:48:09.74104", "criticality_level": 4, "connectiontype": "PH"}, {"id": 487142, "url": "ailegenclikbasvuru.online", "type": "domain", "desc": "PH", "source": "IH", "date": "2023-06-26 07:48:09.74104", "criticality_level": 4, "connectiontype": "PH"}, {"id": 487140, "url": "m-a101.com", "type": "domain", "desc": "PH", "source": "IH", "date": "2023-06-26 07:45:17.198765", "criticality_level": 4, "connectiontype": "PH"}, {"id": 487138, "url": "ozrgldermfg.net", "type": "domain", "desc": "PH", "source": "IH", "date": "2023-06-26 07:24:49.028534", "criticality_level": 4, "connectiontype": "PH"}, {"id": 487136, "url": "fastteklifs.web.tr", "type": "domain", "desc": "PH", "source": "IH", "date": "2023-06-26 07:23:09.94711", "criticality_level": 4, "connectiontype": "PH"}, {"id": 487134, "url": "acillsigorta.b-cdn.net", "type": "domain", "desc": "PH", "source": "IH", "date": "2023-06-26 07:22:18.092988", "criticality_level": 4, "connectiontype": "PH"}], "page": 1, "pageCount": 11207}, {"totalCount": 224139, "count": 20, "models": [{"id": 487132, "url": "siqortamteklifialq.xyz", "type": "domain", "desc": "PH", "source": "IH", "date": "2023-06-26 07:22:01.875478", "criticality_level": 4, "connectiontype": "PH"}, {"id": 487130, "url": "aracmtrms.net", "type": "domain", "desc": "PH", "source": "IH", "date": "2023-06-26 07:10:16.207886", "criticality_level": 4, "connectiontype": "PH"}, {"id": 487128, "url": "ggrnntiivvb.net", "type": "domain", "desc": "PH", "source": "IH", "date": "2023-06-26 07:09:19.458407", "criticality_level": 4, "connectiontype": "PH"}, {"id": 487126, "url": "tr-a101.xyz", "type": "domain", "desc": "PH", "source": "IH", "date": "2023-06-26 07:00:31.084576", "criticality_level": 4, "connectiontype": "PH"}, {"id": 487124, "url": "e-ortaksbayis.net", "type": "domain", "desc": "PH", "source": "IH", "date": "2023-06-26 06:58:30.096489", "criticality_level": 4, "connectiontype": "PH"}, {"id": 487122, "url": "dolap-mobiil.com", "type": "domain", "desc": "PH", "source": "IH", "date": "2023-06-26 06:57:16.034768", "criticality_level": 4, "connectiontype": "PH"}, {"id": 487120, "url": "profil-dolap.com", "type": "domain", "desc": "PH", "source": "IH", "date": "2023-06-26 06:55:42.843053", "criticality_level": 4, "connectiontype": "PH"}, {"id": 487118, "url": "acikdeniz-albays.70-34-194-117.plesk.page", "type": "domain", "desc": "PH", "source": "IH", "date": "2023-06-26 06:54:31.276071", "criticality_level": 4, "connectiontype": "PH"}, {"id": 487116, "url": "70-34-194-117.plesk.page", "type": "domain", "desc": "PH", "source": "IH", "date": "2023-06-26 06:54:31.276071", "criticality_level": 4, "connectiontype": "PH"}, {"id": 487114, "url": "acilsigorta.b-cdn.net", "type": "domain", "desc": "PH", "source": "IH", "date": "2023-06-26 06:53:49.203949", "criticality_level": 4, "connectiontype": "PH"}, {"id": 487112, "url": "bmlkc1x.net", "type": "domain", "desc": "PH", "source": "IH", "date": "2023-06-26 06:30:22.717656", "criticality_level": 4, "connectiontype": "PH"}, {"id": 487110, "url": "hemenarabanburada.net", "type": "domain", "desc": "BP", "source": "US", "date": "2023-06-26 06:21:22.848549", "criticality_level": 4, "connectiontype": "PH"}, {"id": 487108, "url": "getguvenlisipariset.com.tr", "type": "domain", "desc": "BP", "source": "US", "date": "2023-06-26 06:19:27.335883", "criticality_level": 4, "connectiontype": "PH"}, {"id": 487106, "url": "akanewnego.net", "type": "domain", "desc": "BP", "source": "US", "date": "2023-06-26 06:17:30.496512", "criticality_level": 4, "connectiontype": "PH"}, {"id": 487104, "url": "dnzbbnkgm.net", "type": "domain", "desc": "PH", "source": "IH", "date": "2023-06-26 06:06:57.92946", "criticality_level": 4, "connectiontype": "PH"}, {"id": 487102, "url": "evxlxlikbasvxru.net", "type": "domain", "desc": "BP", "source": "IH", "date": "2023-06-26 05:56:02.987877", "criticality_level": 4, "connectiontype": "PH"}, {"id": 487100, "url": "trmarc.net", "type": "domain", "desc": "PH", "source": "IH", "date": "2023-06-26 05:52:01.766549", "criticality_level": 4, "connectiontype": "PH"}, {"id": 487098, "url": "iadenizsizingelinizde.org", "type": "domain", "desc": "BP", "source": "US", "date": "2023-06-26 04:35:22.834643", "criticality_level": 4, "connectiontype": "PH"}, {"id": 487096, "url": "keladam.net", "type": "domain", "desc": "BP", "source": "IH", "date": "2023-06-26 04:32:31.562265", "criticality_level": 4, "connectiontype": "PH"}, {"id": 487094, "url": "cvdelvt-vdt.com", "type": "domain", "desc": "BP", "source": "IH", "date": "2023-06-26 04:32:31.562265", "criticality_level": 4, "connectiontype": "PH"}], "page": 2, "pageCount": 11207}, {"totalCount": 224139, "count": 20, "models": [{"id": 487092, "url": "kredinizz-kuveyytten147.net", "type": "domain", "desc": "PH", "source": "IH", "date": "2023-06-26 04:32:01.380034", "criticality_level": 4, "connectiontype": "PH"}, {"id": 487090, "url": "kuvytttssddj.net", "type": "domain", "desc": "PH", "source": "IH", "date": "2023-06-26 04:32:01.380034", "criticality_level": 4, "connectiontype": "PH"}, {"id": 487088, "url": "sahibinden.xn--breysel-rfb.com.tr", "type": "domain", "desc": "PH", "source": "IH", "date": "2023-06-26 04:32:01.380034", "criticality_level": 4, "connectiontype": "PH"}, {"id": 487086, "url": "sahibinden-paramguvende.e-ticaretalisveris.com", "type": "domain", "desc": "PH", "source": "IH", "date": "2023-06-26 04:32:01.380034", "criticality_level": 4, "connectiontype": "PH"}, {"id": 487084, "url": "sahibinden.anindasiparisim-guvenlik.com", "type": "domain", "desc": "PH", "source": "IH", "date": "2023-06-26 04:32:01.380034", "criticality_level": 4, "connectiontype": "PH"}, {"id": 487082, "url": "sahibinden.mobil-tr.com.tr", "type": "domain", "desc": "PH", "source": "IH", "date": "2023-06-26 04:32:01.380034", "criticality_level": 4, "connectiontype": "PH"}, {"id": 487080, "url": "sahibinden.guvendeapp.com.tr", "type": "domain", "desc": "PH", "source": "IH", "date": "2023-06-26 04:32:01.380034", "criticality_level": 4, "connectiontype": "PH"}, {"id": 487078, "url": "peaceful-heyrovsky.34-17-32-136.plesk.page", "type": "domain", "desc": "PH", "source": "IH", "date": "2023-06-26 04:32:01.380034", "criticality_level": 4, "connectiontype": "PH"}, {"id": 487076, "url": "sahibinden.securem.com.tr", "type": "domain", "desc": "PH", "source": "IH", "date": "2023-06-26 04:32:01.380034", "criticality_level": 4, "connectiontype": "PH"}, {"id": 487074, "url": "sahibinden.onlineapplication.com.tr", "type": "domain", "desc": "PH", "source": "IH", "date": "2023-06-26 04:32:01.380034", "criticality_level": 4, "connectiontype": "PH"}, {"id": 487072, "url": "acilkkksiqortahizmetti.xyz", "type": "domain", "desc": "BP", "source": "US", "date": "2023-06-26 00:27:22.825298", "criticality_level": 4, "connectiontype": "PH"}, {"id": 487070, "url": "webdeiade.de", "type": "domain", "desc": "PH", "source": "IH", "date": "2023-06-26 00:24:57.279419", "criticality_level": 4, "connectiontype": "PH"}, {"id": 487068, "url": "merkeziadeleriniz.org", "type": "domain", "desc": "PH", "source": "IH", "date": "2023-06-26 00:24:57.279419", "criticality_level": 4, "connectiontype": "PH"}, {"id": 487066, "url": "xn--idezamsntgfibrap-odd.app", "type": "domain", "desc": "PH", "source": "IH", "date": "2023-06-26 00:24:57.279419", "criticality_level": 4, "connectiontype": "PH"}, {"id": 487064, "url": "dnzsmdndnenckelziekatilsanasdfajdsh.net", "type": "domain", "desc": "PH", "source": "IH", "date": "2023-06-26 00:24:57.279419", "criticality_level": 4, "connectiontype": "PH"}, {"id": 487062, "url": "xn--haberendeimdi-mtce.app", "type": "domain", "desc": "PH", "source": "IH", "date": "2023-06-26 00:24:57.279419", "criticality_level": 4, "connectiontype": "PH"}, {"id": 487060, "url": "almahy.ae", "type": "domain", "desc": "PH", "source": "IH", "date": "2023-06-26 00:24:57.279419", "criticality_level": 4, "connectiontype": "PH"}, {"id": 487058, "url": "kredi-vakti.com", "type": "domain", "desc": "BP", "source": "IH", "date": "2023-06-26 00:12:18.429667", "criticality_level": 4, "connectiontype": "PH"}, {"id": 487056, "url": "trmmeemrmsrss.net", "type": "domain", "desc": "BP", "source": "IH", "date": "2023-06-26 00:11:12.249331", "criticality_level": 4, "connectiontype": "PH"}, {"id": 487054, "url": "alwayspower.pl", "type": "domain", "desc": "PH", "source": "IH", "date": "2023-06-26 00:09:47.867999", "criticality_level": 4, "connectiontype": "PH"}], "page": 3, "pageCount": 11207}, {"totalCount": 224139, "count": 20, "models": [{"id": 487052, "url": "denizmobilbasvurungirfast.xyz", "type": "domain", "desc": "BP", "source": "US", "date": "2023-06-25 23:29:36.031262", "criticality_level": 4, "connectiontype": "PH"}, {"id": 487050, "url": "bufirsatlarsizinlegzl.com.tr", "type": "domain", "desc": "BP", "source": "US", "date": "2023-06-25 23:29:30.594044", "criticality_level": 4, "connectiontype": "PH"}, {"id": 487048, "url": "denizmobilbasvurungirfastgiris.xyz", "type": "domain", "desc": "BP", "source": "US", "date": "2023-06-25 23:29:24.944502", "criticality_level": 4, "connectiontype": "PH"}, {"id": 487046, "url": "sahibinden-guvnde-onay.com", "type": "domain", "desc": "BP", "source": "US", "date": "2023-06-25 21:19:22.737187", "criticality_level": 4, "connectiontype": "PH"}, {"id": 487044, "url": "denizmobilbasvurunalper.xyz", "type": "domain", "desc": "BP", "source": "IH", "date": "2023-06-25 21:15:58.105981", "criticality_level": 4, "connectiontype": "PH"}, {"id": 487042, "url": "anlikgelisimn.net", "type": "domain", "desc": "BP", "source": "IH", "date": "2023-06-25 21:15:58.105981", "criticality_level": 4, "connectiontype": "PH"}, {"id": 487040, "url": "lbasvuru-evtxdlerndlevu.net", "type": "domain", "desc": "BP", "source": "IH", "date": "2023-06-25 21:15:58.105981", "criticality_level": 4, "connectiontype": "PH"}, {"id": 487038, "url": "kaybetmekyoklugatimda.net", "type": "domain", "desc": "BP", "source": "IH", "date": "2023-06-25 21:15:58.105981", "criticality_level": 4, "connectiontype": "PH"}, {"id": 487036, "url": "denizmobilbasvurunalbay.xyz", "type": "domain", "desc": "BP", "source": "IH", "date": "2023-06-25 21:15:58.105981", "criticality_level": 4, "connectiontype": "PH"}, {"id": 487034, "url": "ziraattogg.com", "type": "domain", "desc": "BP", "source": "IH", "date": "2023-06-25 21:15:58.105981", "criticality_level": 4, "connectiontype": "PH"}, {"id": 487032, "url": "sizinicinherseyimizgzll.com.tr", "type": "domain", "desc": "BP", "source": "IH", "date": "2023-06-25 21:15:58.105981", "criticality_level": 4, "connectiontype": "PH"}, {"id": 487030, "url": "aktar-hemen-iadeni--x5x6-onayla.b-cdn.net", "type": "domain", "desc": "BP", "source": "IH", "date": "2023-06-25 21:15:58.105981", "criticality_level": 4, "connectiontype": "PH"}, {"id": 487028, "url": "trmrislemlertrr.net", "type": "domain", "desc": "BP", "source": "US", "date": "2023-06-25 17:55:22.246713", "criticality_level": 4, "connectiontype": "PH"}, {"id": 487026, "url": "denizmobilbasvurunfirst.xyz", "type": "domain", "desc": "BP", "source": "US", "date": "2023-06-25 17:47:22.354001", "criticality_level": 4, "connectiontype": "PH"}, {"id": 487024, "url": "dnzislmleriguncelislme2023.net", "type": "domain", "desc": "PH", "source": "IH", "date": "2023-06-25 17:37:18.03453", "criticality_level": 4, "connectiontype": "PH"}, {"id": 487022, "url": "trmrislemleritr.net", "type": "domain", "desc": "BP", "source": "US", "date": "2023-06-25 17:33:22.213091", "criticality_level": 4, "connectiontype": "PH"}, {"id": 487020, "url": "hop.alwayspower.pl", "type": "domain", "desc": "PH", "source": "US", "date": "2023-06-25 17:23:50.67344", "criticality_level": 4, "connectiontype": "PH"}, {"id": 487018, "url": "argnet.online", "type": "domain", "desc": "PH", "source": "US", "date": "2023-06-25 17:23:50.67344", "criticality_level": 4, "connectiontype": "PH"}, {"id": 487016, "url": "seckinbutik.fun", "type": "domain", "desc": "PH", "source": "IH", "date": "2023-06-25 17:21:41.828941", "criticality_level": 4, "connectiontype": "PH"}, {"id": 487014, "url": "yapbanabestededikizdedimyapmam.net", "type": "domain", "desc": "PH", "source": "IH", "date": "2023-06-25 17:21:26.890499", "criticality_level": 4, "connectiontype": "PH"}], "page": 4, "pageCount": 11207}]